<svg xmlns="http://www.w3.org/2000/svg">
    <symbol viewBox="0 0 644 81" id="logo">
        <path d="M325,81c-2.2,0-4-1.8-4-4V5c0-2.2,1.8-4,4-4s4,1.8,4,4v72C329,79.2,327.2,81,325,81z" />
        <path d="M308,1h-56c-2.2,0-4,1.8-4,4v72c0,2.2,1.8,4,4,4s4-1.8,4-4V46h43c2.2,0,4-1.8,4-4s-1.8-4-4-4h-43V9h52c2.2,0,4-1.8,4-4
        S310.2,1,308,1z" />
        <path d="M486,73h-53V46h43c2.2,0,5-1.8,5-4s-2.8-4-5-4h-43V9h53c2.2,0,4-1.8,4-4s-1.8-4-4-4h-57c-2.2,0-4,1.8-4,4v72
        c0,2.2,1.8,4,4,4h57c2.2,0,4-1.8,4-4S488.2,73,486,73z" />
        <path d="M561,73h-53V46h43c2.2,0,5-1.8,5-4s-2.8-4-5-4h-43V9h53c2.2,0,4-1.8,4-4s-1.8-4-4-4h-57c-2.2,0-4,1.8-4,4v72
        c0,2.2,1.8,4,4,4h57c2.2,0,4-1.8,4-4S563.2,73,561,73z" />
        <path d="M4,81c-2.2,0-4-1.8-4-4V5c0-2.2,1.8-4,4-4h39c13.5,0,24,11,24,25c0,13.4-11,24-25,24H8v27C8,79.2,6.2,81,4,81z M8,42h34
        c8.4,0,17-6,17-16c0-9.6-7-17-16-17H8V42z" />
        <path d="M144.1,74.5l-20.7-25.8c12-1.8,20.5-10.9,20.5-22.6c0-14-10.5-25-24-25H83c-2.2,0-4,1.8-4,4v72c0,2.2,1.8,4,4,4s4-1.8,4-4
        V49h26.6c0.1,0.2,0.2,0.3,0.3,0.5l24,30c0.8,1,2,1.5,3.1,1.5c0.9,0,1.8-0.3,2.5-0.9C145.2,78.7,145.5,76.2,144.1,74.5z M87,9h33
        c9,0,16,7.5,16,17c0,9.8-8.6,15-17,15H87V9z" />
        <path d="M643.1,74.5l-20.7-25.8c12-1.8,20.5-10.9,20.5-22.6c0-14-10.5-25-24-25h-37c-2.2,0-4,1.8-4,4v72c0,2.2,1.8,4,4,4s4-1.8,4-4
        V49h26.6c0.1,0.2,0.2,0.3,0.3,0.5l24,30c0.8,1,2,1.5,3.1,1.5c0.9,0,1.8-0.3,2.5-0.9C644.2,78.7,644.5,76.2,643.1,74.5z M586,9h33
        c9,0,16,7.5,16,17c0,9.8-8.6,15-17,15h-32V9z" />
        <path d="M194.4,9C212,9,226.3,23.4,226.3,41S212,72.9,194.4,72.9S162.5,58.6,162.5,41S176.8,9,194.4,9 M194.4,1
        c-22.1,0-40,17.9-40,40s17.9,40,40,40c22.1,0,40-17.9,40-40S216.5,1,194.4,1L194.4,1z" />
        <path d="M403.9,38.9c4.9-4,8.1-10.1,8.1-17c0-11.6-9-21.1-20.4-21.9C391.4,0,391.2,0,391,0h-42c-2.2,0-4,1.8-4,4v72c0,2.2,1.8,4,4,4
        c0.2,0,0.3,0,0.5-0.1c0.2,0,0.3,0.1,0.5,0.1h43c12,0,22-9.9,22-22C415,49.8,410.5,42.7,403.9,38.9z M403.8,21.9
        c0,7.6-5.8,14.1-13.8,14.1h-37V8h37C398,8,403.8,14.3,403.8,21.9z M393,72h-40V44h40c8,0,14.8,6.4,14.8,14C407.8,65.6,401,72,393,72
        z M374.8,49.1h1v1h-1V49.1z" />
    </symbol>
    <symbol viewBox="0 0 22 23" id="search">
        <path d="M5.962 7.92C6.017 7.656 6.083 7.381 6.171 7.128C6.743 5.434 7.821 4.125 9.383 3.256C11.154 2.266 13.035 2.112 14.949 2.75C16.357 3.212 17.479 4.081 18.337 5.28C19.514 6.93 19.877 8.767 19.459 10.736C19.096 12.485 18.139 13.871 16.687 14.905C15.092 16.038 13.31 16.39 11.396 16.038C10.252 15.829 9.229 15.334 8.338 14.575C8.217 14.476 8.151 14.465 8.008 14.575C7.645 14.872 7.458 15.224 7.546 15.697C7.557 15.785 7.546 15.884 7.546 15.972C7.557 16.104 7.513 16.203 7.414 16.291C6.336 17.358 5.269 18.425 4.202 19.492C4.103 19.591 4.059 19.591 3.96 19.492C3.476 18.997 2.992 18.513 2.497 18.04C2.365 17.919 2.387 17.853 2.508 17.743C3.487 16.764 4.466 15.796 5.434 14.806C5.698 14.531 5.962 14.366 6.347 14.432C6.765 14.509 7.073 14.355 7.359 14.025C7.524 13.838 7.502 13.75 7.359 13.574C6.325 12.32 5.83 10.868 5.819 9.174C5.83 8.811 5.863 8.371 5.962 7.92ZM12.76 14.454C15.642 14.432 17.93 12.133 17.897 9.262C17.864 6.259 15.565 4.114 12.716 4.114C9.746 4.114 7.535 6.501 7.557 9.306C7.579 12.188 9.889 14.476 12.76 14.454Z" />
    </symbol>
    <symbol viewBox="0 0 13 9" id="checkbox">
        <path d="M12.989,2.385 L7.138,8.488 C6.562,9.089 5.674,9.116 5.038,8.626 L4.723,8.955 L-0.014,4.092 L2.130,1.856 L5.542,5.359 L10.691,-0.011 L12.989,2.385 Z" />
    </symbol>
    <symbol viewBox="0 0 16 16.031" id="editor">
        <path d="M12.254 9.62v4.404a.405.405 0 0 1-.409.401H2.041a.405.405 0 0 1-.408-.401V4.416c0-.221.183-.4.408-.4h3.268c.226 0 .409-.18.409-.401v-.801c0-.221-.183-.4-.409-.4H.816a.809.809 0 0 0-.817.801v12.01c0 .443.366.801.817.801h12.255a.809.809 0 0 0 .817-.801V9.62c0-.22-.183-.4-.409-.4h-.817a.405.405 0 0 0-.408.4zm3.255-7.846L14.137.47a1.71 1.71 0 0 0-2.328-.001L7.396 4.647a.765.765 0 0 0-.242.555v2.826c0 .218.187.393.416.391l2.968-.025a.845.845 0 0 0 .575-.229l4.396-4.176a1.511 1.511 0 0 0 0-2.215zm-2.246.08l.79.751c.161.152.161.4 0 .553l-3.395 3.226a.428.428 0 0 1-.583 0l-.795-.756a.377.377 0 0 1 0-.554l3.401-3.22a.428.428 0 0 1 .582 0z" />
    </symbol>
    <symbol viewBox="0 0 12 16" id="position">
        <path d="M11.207 2.702C10.228 1.148 8.465.141 6.491.007A7.597 7.597 0 0 0 5.611 0C3.635.103 1.853 1.083.845 2.621-.206 4.223-.278 6.165.638 7.792l3.913 7.459c.256.455.772.741 1.347.745.574.005 1.096-.273 1.375-.747l4.028-7.35c.961-1.636.926-3.578-.094-5.197zM9.424 7.066l-3.501 6.389-3.392-6.466c-.614-1.09-.565-2.376.131-3.438.664-1.012 1.784-1.631 3.072-1.698a4.986 4.986 0 0 1 .598.005c1.288.087 2.395.723 3.04 1.746.676 1.073.7 2.359.052 3.462zM6.01 4.227c-.72-.005-1.309.517-1.315 1.167-.006.65.573 1.181 1.293 1.187.72.006 1.309-.517 1.315-1.166.006-.651-.573-1.182-1.293-1.188z" />
    </symbol>
    <symbol viewBox="0 0 52.968 48" id="invalid">
        <path d="M50.645 48H2.276c-.82 0-1.578-.443-1.99-1.163a2.373 2.373 0 0 1-.013-2.334L24.458 1.186A2.297 2.297 0 0 1 26.461 0c.829 0 1.594.453 2.003 1.186l24.184 43.317a2.373 2.373 0 0 1-.012 2.334A2.298 2.298 0 0 1 50.645 48zM6.232 43.317H46.69L26.461 7.085 6.232 43.317zm22.532-13.996v-10.89c0-1.293-1.031-2.342-2.303-2.342s-2.303 1.049-2.303 2.342v10.89c0 1.293 1.031 2.342 2.303 2.342s2.303-1.049 2.303-2.342zm-.265 9.723a2.974 2.974 0 0 0 0-4.145 2.886 2.886 0 0 0-2.038-.854c-.76 0-1.503.31-2.039.854a2.977 2.977 0 0 0 0 4.145 2.88 2.88 0 0 0 2.039.854c.76 0 1.503-.31 2.038-.854z" />
    </symbol>
    <symbol viewBox="0 0 20 22" id="date">
        <path d="M18.824,2.441 L15.294,2.441 L15.294,0.629 C15.294,0.282 15.031,0.000 14.706,0.000 L13.529,0.000 C13.205,0.000 12.941,0.282 12.941,0.629 L12.941,2.441 L7.059,2.441 L7.059,0.629 C7.059,0.282 6.795,0.000 6.471,0.000 L5.294,0.000 C4.969,0.000 4.706,0.282 4.706,0.629 L4.706,2.441 L1.176,2.441 C0.526,2.441 0.000,3.004 0.000,3.699 L0.000,20.743 C0.000,21.437 0.526,22.000 1.176,22.000 L18.824,22.000 C19.474,22.000 20.000,21.437 20.000,20.743 L20.000,3.699 C20.000,3.004 19.474,2.441 18.824,2.441 L18.824,2.441 ZM17.647,18.857 C17.647,19.204 17.383,19.486 17.059,19.486 L2.941,19.486 C2.616,19.486 2.353,19.204 2.353,18.857 L2.353,5.584 C2.353,5.237 2.616,4.956 2.941,4.956 L4.706,4.956 L4.706,6.286 C4.706,6.633 4.969,6.914 5.294,6.914 L6.471,6.914 C6.795,6.914 7.059,6.633 7.059,6.286 L7.059,4.956 L12.941,4.956 L12.941,6.286 C12.941,6.633 13.205,6.914 13.529,6.914 L14.706,6.914 C15.031,6.914 15.294,6.633 15.294,6.286 L15.294,4.956 L17.059,4.956 C17.383,4.956 17.647,5.237 17.647,5.584 L17.647,18.857 ZM7.059,9.429 L5.882,9.429 C5.558,9.429 5.294,9.710 5.294,10.057 L5.294,11.314 C5.294,11.661 5.558,11.943 5.882,11.943 L7.059,11.943 C7.384,11.943 7.647,11.661 7.647,11.314 L7.647,10.057 C7.647,9.710 7.384,9.429 7.059,9.429 ZM10.588,9.429 L9.412,9.429 C9.087,9.429 8.824,9.710 8.824,10.057 L8.824,11.314 C8.824,11.661 9.087,11.943 9.412,11.943 L10.588,11.943 C10.913,11.943 11.177,11.661 11.177,11.314 L11.177,10.057 C11.177,9.710 10.913,9.429 10.588,9.429 ZM14.118,9.429 L12.941,9.429 C12.616,9.429 12.353,9.710 12.353,10.057 L12.353,11.314 C12.353,11.661 12.616,11.943 12.941,11.943 L14.118,11.943 C14.442,11.943 14.706,11.661 14.706,11.314 L14.706,10.057 C14.706,9.710 14.442,9.429 14.118,9.429 ZM7.059,13.200 L5.882,13.200 C5.558,13.200 5.294,13.482 5.294,13.829 L5.294,15.086 C5.294,15.433 5.558,15.714 5.882,15.714 L7.059,15.714 C7.384,15.714 7.647,15.433 7.647,15.086 L7.647,13.829 C7.647,13.482 7.384,13.200 7.059,13.200 ZM10.588,13.200 L9.412,13.200 C9.087,13.200 8.824,13.482 8.824,13.829 L8.824,15.086 C8.824,15.433 9.087,15.714 9.412,15.714 L10.588,15.714 C10.913,15.714 11.177,15.433 11.177,15.086 L11.177,13.829 C11.177,13.482 10.913,13.200 10.588,13.200 ZM14.118,13.200 L12.941,13.200 C12.616,13.200 12.353,13.482 12.353,13.829 L12.353,15.086 C12.353,15.433 12.616,15.714 12.941,15.714 L14.118,15.714 C14.442,15.714 14.706,15.433 14.706,15.086 L14.706,13.829 C14.706,13.482 14.442,13.200 14.118,13.200 Z" />
    </symbol>
    <symbol viewBox="0 0 21.83 22.3" id="like">
        <path d="M14.333,22.306 C11.395,22.306 6.782,21.323 5.640,20.505 C5.390,20.326 5.241,20.036 5.241,19.726 L5.241,10.375 C5.241,10.082 5.374,9.806 5.602,9.625 C5.672,9.569 7.334,8.254 9.069,7.292 C11.223,6.097 12.708,4.414 13.061,3.368 C13.498,2.076 14.096,0.306 16.037,0.306 C16.959,0.306 17.715,0.831 18.112,1.747 C18.918,3.605 18.070,6.184 16.654,8.224 C17.607,8.450 18.790,8.743 19.484,8.962 C20.776,9.371 21.649,10.314 21.817,11.486 C21.990,12.690 21.381,13.895 20.139,14.829 C19.227,17.338 17.632,21.314 16.474,21.964 C16.046,22.205 15.275,22.306 14.333,22.306 ZM7.145,19.158 C8.951,19.924 14.479,20.722 15.528,20.300 C16.083,19.794 17.477,16.605 18.450,13.897 C18.518,13.706 18.646,13.541 18.814,13.428 C19.601,12.897 20.009,12.289 19.933,11.760 C19.871,11.334 19.490,10.970 18.913,10.788 C17.717,10.409 14.786,9.756 14.756,9.750 C14.423,9.676 14.155,9.428 14.053,9.101 C13.951,8.773 14.032,8.416 14.264,8.165 C16.402,5.850 16.781,3.466 16.367,2.512 C16.240,2.220 16.108,2.220 16.037,2.220 C15.568,2.220 15.349,2.549 14.864,3.984 C14.297,5.662 12.337,7.665 9.988,8.968 C8.849,9.599 7.708,10.425 7.145,10.848 L7.145,19.158 ZM3.400,19.808 L3.400,10.263 C3.400,9.405 2.708,8.708 1.853,8.708 C0.999,8.708 0.306,9.405 0.306,10.263 L0.306,19.808 C0.306,20.667 0.999,21.363 1.853,21.363 C2.708,21.363 3.400,20.667 3.400,19.808 Z" />
    </symbol>
    <symbol viewBox="0 0 18 24" id="favor">
        <path d="M14,4v13.2l-3-1.7l-2-1.1l-2,1.1l-3,1.7V4H14 M18,0H0v24l9-5.1l9,5.1V0L18,0z" />
    </symbol>
    <symbol viewBox="0 0 27.032 14" id="eye">
        <path d="M26.762 6.365c-.242-.26-5.993-6.366-13.256-6.366S.492 6.105.251 6.365a.938.938 0 0 0 0 1.27c.241.259 5.992 6.364 13.255 6.364 7.263 0 13.014-6.104 13.256-6.364a.938.938 0 0 0 0-1.27zm-24.557.634c1.374-1.271 4.786-4.072 8.938-4.914a5.5 5.5 0 0 0-2.984 4.914c0 2.152 1.216 4.017 2.981 4.913-4.143-.844-7.559-3.645-8.935-4.913zm7.751 0c0-2.006 1.593-3.638 3.55-3.638 1.958 0 3.55 1.632 3.55 3.638 0 2.007-1.592 3.639-3.55 3.639-1.957 0-3.55-1.632-3.55-3.639zm5.914 4.915a5.501 5.501 0 0 0 2.984-4.915 5.5 5.5 0 0 0-2.981-4.912c4.142.844 7.558 3.644 8.935 4.913-1.375 1.271-4.787 4.072-8.938 4.914z" />
    </symbol>
    <symbol viewBox="0 0 20 18" id="comment">
        <path d="M19.13 0H.87C.389 0 0 .403 0 .9v11.49c0 .497.389.885.87.885h10.217V17.1c0 .378.275.715.618.845a.888.888 0 0 0 .998-.271l3.608-4.399h2.819c.481 0 .87-.388.87-.885V.9c0-.497-.389-.9-.87-.9zm-.869 11.475h-2.353a.965.965 0 0 0-.711.326l-2.371 2.845V12.39c0-.497-.294-.915-.774-.915H1.739V1.8h16.522v9.675z" />
    </symbol>
    <symbol viewBox="0 0 20 16" id="link">
        <path d="M1.084,15.998 C0.994,15.998 0.903,15.987 0.812,15.962 C0.337,15.836 0.005,15.400 0.003,14.899 C0.003,14.722 0.023,10.520 3.105,7.362 C5.064,5.355 7.777,4.245 11.180,4.054 L11.180,1.108 C11.180,0.660 11.444,0.257 11.850,0.087 C12.257,-0.082 12.722,0.015 13.030,0.334 L19.684,7.227 C20.099,7.657 20.099,8.346 19.684,8.776 L13.030,15.669 C12.722,15.988 12.257,16.086 11.850,15.916 C11.444,15.746 11.180,15.343 11.180,14.895 L11.180,11.915 C9.031,11.853 3.882,12.071 2.026,15.436 C1.831,15.789 1.467,15.998 1.084,15.998 ZM10.590,9.696 C11.599,9.696 12.281,9.768 12.380,9.780 C12.927,9.842 13.341,10.314 13.341,10.876 L13.341,12.204 L17.397,8.001 L13.341,3.799 L13.341,5.127 C13.341,5.736 12.857,6.230 12.260,6.230 C8.943,6.230 6.378,7.135 4.637,8.919 C3.843,9.732 3.304,10.640 2.938,11.497 C5.456,9.970 8.635,9.696 10.590,9.696 Z" />
    </symbol>
    <symbol viewBox="0 0 27 32.1" id="nonpro">
        <path d="M11.1 13.7c.5 0 1-.1 1.5-.5.3-.2.5-.2.5-.2h1s.2 0 .5.2c.4.4 1 .5 1.5.5.2 0 .3 0 .5-.1.5-.1.8-.6.6-1.1a.8.8 0 0 0-1.1-.6c-.1 0-.3 0-.4-.1-.8-.7-1.6-.7-1.8-.6-.2.1-.6.1-.8 0-.2-.1-.9-.1-1.8.6-.1.1-.3.1-.4.1-.5-.1-1 .2-1.1.6-.1.5.2.9.6 1.1.3.1.5.1.7.1zm9.9 5.4h-2.7v-2.8c.7-.8 1.3-1.7 1.7-2.6.9-.1 1.8-1 2.3-2.4.6-1.7.3-3.2-.8-3.6-.2-1.8-1-3.6-2.3-5C17.6 1 15.6 0 13.5 0S9.4 1 7.8 2.7c-1.3 1.4-2.1 3.2-2.3 5-1.1.4-1.5 1.9-.9 3.7.5 1.4 1.4 2.3 2.3 2.4.5 1 1 1.9 1.8 2.7v2.7H6.1C2.8 19.2 0 22 0 25.3v3.1c0 .3.2.6.5.8 4.8 2.2 9.3 2.9 13.1 2.9 2 0 3.8-.2 5.3-.5 4.7-.8 7.6-2.4 7.7-2.5.3-.2.4-.4.4-.8v-3.1c0-3.3-2.6-6.1-6-6.1zM8.4 12.4c-.1-.2-.3-.4-.5-.5h-.3c-.1 0-.2 0-.3.1-.2-.1-.5-.5-.8-1.2-.2-.6-.2-1.1-.2-1.3.2.1.5 0 .7-.1.3-.2.4-.5.4-.8v-.2c0-3.1 2.7-6.6 6.2-6.6s6.2 3.6 6.2 6.6v.2c0 .3.1.6.4.7.2.1.4.2.7.1.1.2.1.7-.2 1.4-.3.7-.6 1.1-.8 1.2-.2-.1-.4-.1-.6 0s-.4.2-.5.5c-1 2.2-3 4.8-5.2 4.8-2.3 0-4.2-2.6-5.2-4.9zm8.4 8.3c-.2 1.3-1.9 3.4-3.3 4.9-1.4-1.5-3-3.7-3.3-4.9.2-.2.3-.4.3-.6v-2c.9.6 1.9 1 2.9 1 1.1 0 2.2-.4 3.1-1.1v2.1l.3.6zm1.7 9.1c-4 .7-10.1.8-16.7-2.1v-2.5c0-2.3 1.9-4.3 4.3-4.3h2.4c.4 2.6 4 6.2 4.4 6.6.2.2.4.3.6.3s.5-.1.6-.3c.4-.4 4-4 4.4-6.6h2.4c2.4 0 4.2 2 4.2 4.3v2.6c-.7.4-3.2 1.4-6.6 2z" />
    </symbol>
    <symbol viewBox="0 0 27 32.1" id="nonpro_color">
        <path d="M25.3 27.7v-2.6c0-2.3-1.9-4.3-4.2-4.3h-2.4c-.4 2.6-4 6.2-4.4 6.6-.2.2-.4.3-.6.3s-.5-.1-.6-.3c-.4-.4-4-4-4.4-6.6H6.1c-2.4 0-4.3 2-4.3 4.3v2.5c6.6 3 12.7 2.8 16.7 2.1 3.4-.5 5.9-1.5 6.8-2z" />
    </symbol>
    <symbol viewBox="0 0 25.9 31.9" id="proffi">
        <path d="M17.1 1.1C15.4.3 13.7 0 12.3 0 9.5 0 7.9 1.4 6.5 2.8c-1.6 1.7-3.1 2-3.1 2-.4.1-.6.4-.6.8s.2.7.6.8c.7.2 1.5.4 2.4.4v1.8C4.7 9 4.4 10.4 5 12c.1.3.3.4.5.5v.5c0 1.8-.1 4.3.5 6.5-2.9.3-6 2.7-6 5.8v3c0 .3.2.6.5.8 4.6 2.2 9 2.8 12.6 2.8 1.9 0 3.6-.2 5-.4 4.5-.8 7.3-2.4 7.4-2.4.3-.2.4-.4.4-.7v-3c0-3.1-3-5.5-5.9-5.8.6-2.2.6-4.6.5-6.5v-.6c.2-.1.3-.3.4-.5.6-1.6.2-3-.7-3.4v-.3c.1-.5.6-5.3-3.1-7.2zm.7 11.3c.4-.5 1.7-1.9 1.7-1.9 0 .2 0 .5-.1.9-.3.1-.6.4-.6.8v1c0 2.7.1 6.8-2 8.9-.9 1-2.2 1.4-3.9 1.4s-3-.5-3.9-1.4c-2.1-2.1-2-6.2-2-8.9v-1c0-.4-.3-.8-.7-.8-.1-.4-.1-.7-.1-.9l1.6 1.9c.4.4.9.6 1.5.6.5 0 1-.2 1.4-.6l.6-.5c.1-.1.2-.1.3-.1h2.5c.1 0 .2 0 .3.1l.5.5c.8.8 2.1.8 2.9 0zm.8-3.4l-2 2.2c-.1.1-.4.1-.5 0l-.5-.5c-.4-.4-.9-.6-1.4-.6h-2.6c-.5 0-1.1.2-1.4.6l-.6.5c-.1.1-.4.1-.5 0L7.3 9.1V6.8c4.1-.5 8-3 9.4-3.9 2.2 1.8 1.9 5.3 1.9 5.3V9zM7.7 4.1c1.2-1.2 2.5-2.3 4.6-2.3.7 0 1.6.1 2.5.4-1.9 1.2-5.3 3-8.5 3.1.5-.4.9-.8 1.4-1.2zM1.6 25.5c0-2.3 2.7-4.1 4.9-4.1.3.7.7 1.4 1.3 2 .9.9 2.1 1.5 3.4 1.8v5.3c-2.9-.2-6.1-.9-9.6-2.4v-2.6zm22.6 2.4c-.9.4-3.2 1.4-6.5 2-1.4.2-3 .4-4.8.4v-5.2h.1c2.2 0 3.9-.6 5.1-1.9.6-.6 1-1.2 1.3-2 2.2 0 4.7 1.8 4.7 4.1l.1 2.6z" />
    </symbol>
    <symbol viewBox="0 0 25.9 31.9" id="proffi_beard">
        <path d="M17.8 12.4c.4-.5 1.7-1.9 1.7-1.9 0 .2 0 .5-.1.9-.3.1-.6.4-.6.8v1c0 2.7.1 6.8-2 8.9-.9 1-2.2 1.4-3.9 1.4s-3-.5-3.9-1.4c-2.1-2.1-2-6.2-2-8.9v-1c0-.4-.3-.8-.7-.8-.1-.4-.1-.7-.1-.9l1.6 1.9c.4.4.9.6 1.5.6.5 0 1-.2 1.4-.6l.6-.5c.1-.1.2-.1.3-.1h2.5c.1 0 .2 0 .3.1l.5.5c.8.8 2.1.8 2.9 0z" />
    </symbol>
    <symbol viewBox="0 0 25.9 31.9" id="proffi_color">
        <path d="M1.7 25.5c0-2.3 2.7-4.1 4.9-4.1.3.7.7 1.4 1.3 2 .9.9 2.1 1.5 3.4 1.8v5.3c-2.9-.2-6.1-.9-9.6-2.4v-2.6zm22.5 2.4c-.9.4-3.2 1.4-6.5 2-1.4.2-3 .4-4.8.4v-5.2h.1c2.2 0 3.9-.6 5.1-1.9.6-.6 1-1.2 1.3-2 2.2 0 4.7 1.8 4.7 4.1l.1 2.6z" />
    </symbol>
    <symbol viewBox="0 0 50 50" id="video_play">
        <path d="M33.1 22.9l-9-6c-.4-.3-.9-.4-1.4-.4-.4 0-.8.1-1.2.3-.8.4-1.3 1.3-1.3 2.2v12c0 .9.5 1.8 1.3 2.2.4.2.8.3 1.2.3.5 0 1-.1 1.4-.4l9-6c.7-.5 1.1-1.2 1.1-2.1.1-.8-.4-1.6-1.1-2.1zM30.4 25c0 .1 0 .1-.1.2l-6.5 4v-8.6l6.5 4.3.1.1z" />
        <path d="M25 0C11.2 0 0 11.2 0 25s11.2 25 25 25 25-11.2 25-25S38.8 0 25 0zm21.5 25c0 11.9-9.6 21.5-21.5 21.5S3.5 36.9 3.5 25 13.1 3.5 25 3.5 46.5 13.1 46.5 25z" />
    </symbol>
    <symbol viewBox="0 0 14 24" id="arrow_prev">
        <path d="M14 21.385l-2.504 2.617-8.98-9.385L.012 12 11.496-.002 14 2.615 5.021 12 14 21.385z" />
    </symbol>
    <symbol viewBox="0 0 14 24" id="arrow_next">
        <path d="M2.504 24.002L0 21.385 8.979 12 0 2.615 2.504-.002 13.988 12 2.504 24.002z" />
    </symbol>
    <symbol viewBox="0 0 10 6" id="arrow_top">
        <path d="M10.004,4.295 L5.007,-0.010 L0.011,4.295 L1.389,6.005 L5.007,2.889 L8.625,6.005 L10.004,4.295 Z" />
    </symbol>
    <symbol viewBox="0 0 10 6" id="arrow_bottom">
        <path d="M10.004,1.705 L5.007,6.010 L0.011,1.705 L1.389,-0.005 L5.007,3.112 L8.625,-0.005 L10.004,1.705 Z" />
    </symbol>
    <symbol viewBox="0 0 14.06 14.031" id="delete">
        <path d="M13.671 11.959a1.216 1.216 0 0 1 0 1.717 1.21 1.21 0 0 1-.859.355 1.21 1.21 0 0 1-.858-.355l-4.94-4.941-4.941 4.941a1.208 1.208 0 0 1-.858.355 1.214 1.214 0 0 1-.858-2.072l4.94-4.94-4.94-4.94A1.213 1.213 0 1 1 2.073.363l4.941 4.94 4.94-4.94a1.214 1.214 0 0 1 1.717 1.716L8.73 7.019l4.941 4.94z" />
    </symbol>
    <symbol viewBox="0 0 18 18" id="download">
        <path d="M18 11.554V17c0 .552-.468 1-1.046 1H1.047C.469 18 0 17.552 0 17v-5.446c0-.552.469-1 1.047-1 .577 0 1.046.448 1.046 1V16h13.814v-4.446c0-.552.469-1 1.046-1 .578 0 1.047.448 1.047 1zm-9.747 1.254c.196.192.466.301.747.301.282 0 .551-.109.748-.301l4.175-4.073a.969.969 0 0 0-.015-1.414 1.083 1.083 0 0 0-1.481.015l-2.38 2.322V1c0-.552-.469-1-1.047-1S7.954.448 7.954 1v8.658L5.573 7.336a1.081 1.081 0 0 0-1.48-.015.97.97 0 0 0-.015 1.414l4.175 4.073z" />
    </symbol>
    <symbol viewBox="0 0 23 14" id="mail">
        <path d="M22.998 1.015c-.001-.039-.006-.077-.011-.116-.004-.029-.006-.06-.013-.089-.007-.033-.018-.064-.029-.097-.01-.032-.019-.065-.032-.097-.012-.026-.028-.052-.042-.078-.018-.034-.035-.068-.057-.1l-.011-.019c-.014-.019-.031-.034-.045-.052-.023-.028-.046-.056-.072-.081-.024-.024-.05-.044-.075-.065-.026-.02-.051-.041-.078-.058a.745.745 0 0 0-.087-.049c-.028-.015-.056-.03-.086-.042-.031-.012-.063-.021-.095-.031-.03-.008-.06-.017-.091-.023a1 1 0 0 0-.11-.011C22.042.005 22.022 0 22 0H1C.978 0 .957.005.936.007a1 1 0 0 0-.11.011C.795.024.765.033.735.042a1.047 1.047 0 0 0-.095.03.855.855 0 0 0-.086.042.745.745 0 0 0-.087.049C.44.18.415.201.389.221.364.242.338.262.314.286.288.311.265.339.242.367.228.385.211.4.197.419L.186.438C.164.47.147.504.129.538.115.564.099.59.088.617.074.648.065.681.055.713.044.746.033.777.026.81.019.839.017.87.013.899c-.005.039-.01.077-.011.116L0 1.037v11.926C0 13.536.448 14 1 14h21c.552 0 1-.464 1-1.037V1.037l-.002-.022zm-4.022 1.059L11.5 7.831 4.024 2.074h14.952zM2 11.926V3.099l8.904 6.856a.97.97 0 0 0 1.192 0L21 3.099v8.827H2z" />
    </symbol>
    <symbol viewBox="0 0 90.41 7" id="artatom">
        <path d="M2.564,0.038 L-0.000,6.900 L1.676,6.900 L2.033,5.902 L4.222,5.902 L4.579,6.900 L6.347,6.900 L3.681,0.038 L2.564,0.038 ZM2.601,4.361 L2.656,4.206 L3.132,2.772 L3.627,4.245 L3.663,4.361 L2.601,4.361 ZM19.371,2.354 C19.390,1.220 18.648,0.058 17.164,0.058 L14.673,0.058 L14.673,6.900 L16.230,6.900 L16.230,4.603 L16.486,4.603 L17.823,6.900 L19.490,6.900 L19.490,6.590 L18.116,4.439 C18.941,4.021 19.353,3.169 19.371,2.354 ZM17.127,3.101 L16.230,3.101 L16.230,1.647 L17.127,1.647 C17.613,1.647 17.851,2.044 17.842,2.404 C17.833,2.742 17.586,3.101 17.127,3.101 ZM27.963,0.038 L32.982,0.038 L32.982,1.589 L31.260,1.589 L31.260,6.900 L29.694,6.900 L29.694,1.589 L27.963,1.589 L27.963,0.038 ZM43.919,0.038 L41.354,6.900 L43.030,6.900 L43.387,5.902 L45.576,5.902 L45.933,6.900 L47.701,6.900 L45.036,0.038 L43.919,0.038 ZM43.955,4.361 L44.010,4.206 L44.486,2.772 L44.981,4.245 L45.018,4.361 L43.955,4.361 ZM55.871,0.038 L60.890,0.038 L60.890,1.589 L59.168,1.589 L59.168,6.900 L57.602,6.900 L57.602,1.589 L55.871,1.589 L55.871,0.038 ZM72.706,0.009 C70.874,0.009 69.390,1.521 69.390,3.518 C69.390,5.514 70.874,6.997 72.706,6.997 C74.538,6.997 76.030,5.485 76.030,3.518 C76.030,1.521 74.538,0.009 72.706,0.009 ZM72.669,5.427 C71.799,5.417 70.948,4.787 70.948,3.518 C70.948,2.248 71.799,1.618 72.669,1.599 C73.557,1.579 74.455,2.219 74.455,3.518 C74.455,4.797 73.557,5.437 72.669,5.427 ZM89.183,0.116 L90.411,0.116 L90.411,6.900 L88.854,6.900 L88.854,3.546 L87.929,4.991 L87.058,4.991 L86.134,3.528 L86.134,6.900 L84.568,6.900 L84.568,0.116 L85.813,0.116 L87.499,2.742 L89.183,0.116 Z" />
    </symbol>
    <symbol viewBox="0 0 71.06 6.97" id="velest">
        <path d="M4.463,0.086 L6.057,0.086 L6.057,0.328 L3.584,6.890 L2.448,6.890 L-0.016,0.396 L-0.016,0.086 L1.587,0.086 L2.649,2.916 L3.025,4.224 L3.401,2.916 L4.463,0.086 ZM15.848,5.271 L18.504,5.271 L18.504,6.870 L14.273,6.870 L14.273,0.028 L18.495,0.028 L18.495,1.627 L15.848,1.627 L15.848,2.577 L18.440,2.577 L18.440,4.185 L15.848,4.185 L15.848,5.271 ZM28.680,5.271 L31.373,5.271 L31.373,6.870 L27.114,6.870 L27.114,0.086 L28.680,0.086 L28.680,5.271 ZM41.467,5.271 L44.123,5.271 L44.123,6.870 L39.892,6.870 L39.892,0.028 L44.113,0.028 L44.113,1.627 L41.467,1.627 L41.467,2.577 L44.059,2.577 L44.059,4.185 L41.467,4.185 L41.467,5.271 ZM57.550,4.253 C57.578,4.409 57.596,4.583 57.596,4.728 C57.596,6.143 56.295,6.957 55.077,6.957 C54.034,6.957 52.614,6.279 52.614,4.554 L54.198,4.554 C54.198,5.223 54.730,5.348 55.087,5.348 C55.599,5.348 56.012,5.193 56.012,4.805 C56.012,4.321 55.279,4.301 55.041,4.273 C54.007,4.167 52.780,3.923 52.660,2.366 C52.592,0.877 53.743,-0.011 55.105,-0.011 C56.250,-0.011 57.486,0.667 57.486,2.228 L55.911,2.228 C55.911,1.772 55.563,1.530 55.077,1.530 C54.592,1.530 54.254,1.753 54.254,2.121 C54.254,2.625 55.013,2.634 55.224,2.654 C56.131,2.780 57.276,3.032 57.550,4.253 ZM52.660,2.363 L52.660,2.366 C52.660,2.368 52.660,2.371 52.660,2.371 L52.660,2.363 ZM71.060,0.008 L71.060,1.559 L69.338,1.559 L69.338,6.870 L67.772,6.870 L67.772,1.559 L66.041,1.559 L66.041,0.008 L71.060,0.008 Z" />
    </symbol>
    <symbol id="symbol-enter" viewBox="0 0 20 20">
        <path d="M17.06 10V3.85c0-.55-.17-1.02-.61-1.37-.23-.18-.49-.28-.78-.31-.09-.01-.18-.01-.27-.01H6.17c-.54 0-.99.18-1.33.61-.24.3-.33.65-.33 1.02 0 1.23 0 2.46-.01 3.69 0 .14.04.17.17.17.4-.01.81-.01 1.21 0 .16 0 .19-.04.19-.19-.01-1.17 0-2.35-.01-3.52 0-.19.05-.23.23-.22 2.99.01 5.99.01 8.98 0 .19 0 .22.05.22.23-.01 4.04-.01 8.08 0 12.12 0 .17-.03.23-.22.23-2.99-.01-5.99-.01-8.98 0-.18 0-.23-.03-.23-.22.01-1.17 0-2.35.01-3.52 0-.15-.03-.2-.19-.2-.41.01-.82.01-1.23 0-.11 0-.16.02-.15.15 0 1.25-.01 2.5.01 3.75.01.96.68 1.59 1.64 1.59h9.27c1 0 1.64-.67 1.64-1.69V10z"></path><path d="M8.42 7.1c0 .63-.01 1.25 0 1.87 0 .19-.03.25-.24.25-1.92-.01-3.85 0-5.77-.01-.23 0-.27.07-.26.27.02.37.01.75 0 1.12 0 .15.05.18.19.18 1.96 0 3.92 0 5.87-.01.18 0 .21.05.21.22-.01.64 0 1.27 0 1.91.07.01.11-.04.15-.07l3.61-2.71c.12-.09.17-.14.01-.25-1.2-.89-2.4-1.79-3.6-2.69-.04-.03-.08-.08-.17-.08z"></path>
    </symbol>

    <symbol id="symbol-exit" viewBox="0 0 20 20">
        <path d="M19 10V3.8c0-.6-.2-1-.6-1.4-.2-.2-.5-.3-.8-.3H8.1c-.5 0-1 .2-1.3.6-.2.3-.3.7-.3 1v3.7c0 .1 0 .2.2.2h1.2c.1 0 .1 0 .1-.1V4c0-.2.1-.2.2-.2h9c.2 0 .2.1.2.2v12.1c0 .2 0 .2-.2.2h-9c-.2 0-.2 0-.2-.2v-3.5c0-.2 0-.2-.2-.2H6.6c-.1 0-.2 0-.2.2v3.7c0 1 .7 1.6 1.6 1.6h9.3c1 0 1.6-.7 1.6-1.7.1-2.1.1-4.2.1-6.2z"></path><path d="M4.9 12.9V11c0-.2 0-.3.2-.3h5.8c.2 0 .3-.1.3-.3V9.3c0-.1-.1-.2-.2-.2H5.1c-.2 0-.2 0-.2-.2V7c-.1 0-.1 0-.1.1-1.3 1-2.5 1.9-3.7 2.8-.1.1-.2.1 0 .2l3.6 2.7s.1.1.2.1z"></path>
    </symbol>
    <symbol id="symbol-levin" viewBox="0 0 20 20">
        <path d="M15.88 7.637c-.52.65-1.01 1.26-1.5 1.88l-7.77 9.72c-.1.13-.2.18-.36.18-.3-.01-.61 0-.92 0-.02-.1.04-.17.07-.24 1.11-2.59 2.22-5.19 3.33-7.78.09-.22.09-.22-.14-.22H4.16c-.04-.09.02-.14.05-.2L8.74.777c.05-.12.1-.19.25-.19 2.27.01 4.54 0 6.81 0h.09c.01.09-.05.15-.08.22-1.11 2.2-2.23 4.4-3.34 6.6-.11.22-.11.22.14.22h3c.07.01.15.01.27.01zm-4.54 3.74c.08-.01.1-.08.14-.12.44-.55.88-1.1 1.33-1.66.2-.25.39-.49.61-.76-.08-.01-.11-.01-.15-.01h-2.62c-.18 0-.2-.04-.12-.2l1.11-2.19c.76-1.5 1.52-2.99 2.28-4.49.05-.11.13-.2-.09-.2-1 .01-2 .01-3 .01-.32 0-.64.01-.96-.02-.22-.01-.32.09-.41.28-.64 1.46-1.29 2.92-1.93 4.37-.5 1.13-1.01 2.27-1.51 3.4-.07.15-.06.22.13.22.35-.02.7-.01 1.06-.02.09.01.18.01.27.01h3.12c-.67 1.56-1.33 3.12-2 4.68-.02.04-.1.09-.02.14.05.03.08-.03.12-.07.03-.04.06-.07.09-.11.58-.72 1.17-1.44 1.74-2.17.26-.33.56-.63.76-1.01.04-.01.05-.04.05-.08z" ></path><path d="M10.83 1.767c1 0 2 0 3-.01.21 0 .14.09.09.2-.76 1.5-1.52 2.99-2.28 4.49-.37.73-.73 1.46-1.11 2.19-.08.15-.06.2.12.2.87-.01 1.75 0 2.62 0 .03 0 .07.01.15.01-.22.27-.41.51-.61.76-.44.55-.88 1.1-1.33 1.66-.04.05-.06.11-.13.12-.04-.08.02-.15.04-.22.13-.32.27-.64.4-.96.06-.15.03-.22-.14-.22-.35.01-.7.01-1.05.01H7.48c-.09 0-.18 0-.27-.01l.66-1.47c.88-1.97 1.76-3.94 2.64-5.92.12-.27.28-.53.32-.83z" fill="#FFE200"></path><path d="M11.29 11.457c.01-.03.01-.07.06-.07-.01.03-.02.06-.06.07z" fill="#FEEDA2"></path>
    </symbol>

    <symbol id="symbol-list" viewBox="0 0 23 23">
        <path d="M11.47 5.18c-2.62 0-5.24 0-7.85.01-.2 0-.25-.05-.25-.25.02-.46.01-.93 0-1.39 0-.14.04-.19.17-.17.1.01.21 0 .31 0 5.16 0 10.31 0 15.47-.01.25 0 .31.07.29.3-.02.43-.02.86 0 1.29.01.18-.05.22-.22.22h-7.92zM5.75 10.6H3.62c-.19 0-.26-.04-.25-.24.02-.42.02-.85 0-1.27-.01-.23.04-.3.29-.3 4 .01 2.25.01 6.25.01h3.74c.18 0 .23.04.23.22-.18.45-.35.48-.73 1.33-.07.2-.11.26-.31.26-2.64-.01-4.46-.01-7.09-.01zM11.22 14.24c-.22.54-.47.95-.82 1.68-.03.06-.04.1-.1.1H3.52c-.12 0-.14-.05-.14-.16v-1.48c0-.12.02-.17.16-.17h7.61c.02 0 .04.01.07.03z"></path><path d="M19.79 13.43c-.34.43-.66.83-.98 1.23-1.7 2.13-3.4 4.25-5.1 6.38-.07.08-.13.12-.24.12-.2-.01-.4 0-.6 0-.01-.07.02-.11.04-.16.73-1.7 1.46-3.4 2.19-5.11.06-.14.06-.14-.09-.14H12.1c-.02-.06.01-.09.03-.13.99-2.23 1.98-4.46 2.97-6.7.03-.08.07-.12.16-.12H19.79c.01.06-.03.1-.06.15-.73 1.45-1.46 2.89-2.19 4.34-.07.14-.07.15.09.15h1.97c.05-.01.1-.01.19-.01z" fill="#4B4B4B"></path><path d="M16.81 15.88c.05-.01.07-.05.09-.08.29-.36.58-.73.87-1.09.13-.16.26-.32.4-.5-.05 0-.07-.01-.1-.01h-1.72c-.12 0-.13-.03-.08-.13.25-.48.48-.96.73-1.44.5-.98 1-1.97 1.5-2.95.04-.07.08-.13-.06-.13-.66.01-1.31 0-1.97.01-.21 0-.42 0-.63-.01-.15-.01-.21.05-.27.18-.42.96-.85 1.91-1.27 2.87-.33.74-.66 1.49-.99 2.23-.05.1-.04.15.09.14.23-.01.46-.01.7-.01h2.23c-.45 1.04-.89 2.06-1.33 3.09-.01.03-.06.06-.01.09.03.02.06-.02.08-.04.02-.02.04-.05.06-.07.38-.48.77-.95 1.14-1.43.17-.22.37-.41.5-.66.03-.01.04-.03.04-.06z" fill="#FFE200"></path><path d="M16.79 17.43c0-.02.01-.03.03-.03 0 .01-.01.03-.03.03z" fill="#FEEDA2"></path>
    </symbol>

    <symbol id="symbol-lock_sm" viewBox="0 0 10 14">
        <path d="M4.82 13.12c-1.18 0-2.35.01-3.53-.01-.18 0-.35-.09-.51-.19-.48-.29-.73-.72-.73-1.28-.01-1.6-.01-3.2 0-4.79 0-.84.64-1.46 1.48-1.47h6.71c.85 0 1.48.64 1.48 1.49v4.75c0 .86-.63 1.49-1.49 1.49-1.14.02-2.28.01-3.41.01zm-.42-2.9c0 .17-.01.34 0 .51.01.2.11.34.29.42.31.13.65-.08.66-.41.01-.33.01-.67.01-1 0-.08.02-.14.09-.19a.95.95 0 0 0 .2-1.34c-.37-.46-.97-.52-1.43-.13-.38.33-.43.98-.04 1.34.2.19.23.38.22.61v.19zM2.22 4.91h-.63c-.06 0-.09-.01-.09-.08-.01-.59 0-1.18.16-1.75.26-.96.78-1.73 1.69-2.17C4 .59 4.69.5 5.41.6c.61.09 1.16.31 1.63.71.59.5.91 1.14 1.09 1.88.13.54.15 1.09.14 1.64 0 .07-.02.09-.09.09H6.9c-.1 0-.08-.06-.08-.12 0-.4.01-.8-.08-1.19-.1-.47-.27-.89-.64-1.21-.19-.17-.42-.28-.67-.33-.4-.08-.8-.08-1.2.03-.57.17-.91.58-1.1 1.12-.18.48-.19.99-.19 1.49 0 .2 0 .2-.2.2h-.52z" fill="#4B4B4B"></path>
    </symbol>

    <symbol id="symbol-notice" viewBox="0 0 23 23">
        <path d="M9.924 17.825H4.473c-.15 0-.207-.023-.195-.195.011-.483.011-.978 0-1.461 0-.127.034-.161.16-.161.288.012.576 0 .863 0 .115 0 .161-.034.196-.15.184-.575.368-1.15.563-1.725.035-.091.023-.183.023-.287V9.775c0-2.38 1.369-4.347 3.588-5.187.161-.057.391-.034.46-.195.07-.15.023-.345.012-.517-.035-1.058 1.104-1.76 2.035-1.22.426.253.69.644.656 1.139-.035.471.115.667.575.851 2.23.862 3.507 2.783 3.507 5.175v4.048c0 .104.012.207.046.299.184.552.368 1.104.54 1.656.035.127.093.172.23.172.288-.011.576 0 .863-.011.104 0 .138.023.138.138 0 .506-.011 1.023 0 1.53 0 .172-.103.138-.195.138h-5.463c.265.517.322 1.035.104 1.552a1.72 1.72 0 0 1-.702.863 1.82 1.82 0 0 1-2.162-.162c-.494-.39-.874-1.23-.39-2.219zm5.727-1.805c-.15-.472-.287-.909-.437-1.335-.08-.23-.115-.46-.115-.701.012-1.38 0-2.76 0-4.14 0-.195.012-.38-.011-.575a3.635 3.635 0 0 0-3.151-3.151C9.832 5.876 7.935 7.475 7.9 9.579a58.836 58.836 0 0 0 0 3.186c.046 1.046-.057 2.047-.483 3.013-.092.195-.046.253.173.242 2.599-.012 5.21 0 7.808 0h.253z"></path>
    </symbol>

    <symbol id="symbol-notice_alert" viewBox="0 0 23 23">
        <path d="M17.871 5.842a1.783 1.783 0 1 0 0-3.565 1.783 1.783 0 0 0 0 3.565z"></path>
    </symbol>

    <symbol id="symbol-play" viewBox="0 0 33 38">
        <path d="M.88 37.59V.4C11.43 6.6 21.92 12.78 32.49 19 21.92 25.21 11.44 31.38.88 37.59z" fill="#FFE200"></path>
    </symbol>
    <symbol id="symbol-special" viewBox="0 0 20 20">
        <path d="M9.942 18.858c-2.067 0-3.944-.681-5.579-2.024-1.749-1.431-2.803-3.297-3.131-5.545-.377-2.565.274-4.895 1.933-6.925C4.607 2.603 6.473 1.55 8.712 1.232a9.718 9.718 0 0 1 1.359-.098c2.078 0 3.998.724 5.707 2.153.091.076.183.172.186.309.003.152-.111.257-.148.292a.95.95 0 0 0-.112.141c-.089.124-.188.265-.353.29h-.009c-.203 0-.324-.12-.441-.235-.038-.038-.076-.077-.114-.106-1.226-.96-2.521-1.496-3.956-1.637a8.519 8.519 0 0 0-.867-.044c-1.7 0-3.262.536-4.642 1.594-1.609 1.235-2.6 2.902-2.944 4.955-.059.325-.074.656-.09 1.006l-.008.168c.109 2.863 1.366 5.08 3.737 6.571a7.223 7.223 0 0 0 3.901 1.108c.188 0 .378-.006.569-.019 2.203-.146 4.033-1.08 5.439-2.778 1.395-1.686 1.969-3.653 1.706-5.849a7.314 7.314 0 0 0-.955-2.863c-.113-.196-.094-.367.062-.522.104-.103.188-.216.271-.328.034-.047.117-.162.258-.162.148 0 .233.126.269.181.637 1.036 1.036 2.104 1.192 3.182.471 3.211-.503 5.94-2.894 8.107-1.435 1.293-3.163 2.026-5.139 2.181a9.63 9.63 0 0 1-.754.029z"></path><path d="M2.08 10.01c.11 2.91 1.35 5.19 3.83 6.75 1.4.88 2.94 1.23 4.59 1.12 2.27-.15 4.14-1.11 5.58-2.85 1.44-1.74 2.02-3.75 1.75-6a7.47 7.47 0 0 0-.98-2.94c-.07-.12-.06-.19.03-.28.11-.11.2-.23.29-.35.08-.11.12-.11.2.01.59.96 1 1.99 1.16 3.1.46 3.14-.48 5.8-2.83 7.93-1.42 1.28-3.11 1.98-5.02 2.13-2.32.18-4.4-.48-6.19-1.95-1.71-1.4-2.74-3.23-3.06-5.42-.37-2.52.28-4.8 1.89-6.77 1.4-1.71 3.23-2.75 5.42-3.06 2.6-.37 4.9.33 6.91 2.01.13.11.16.18.03.3s-.23.36-.36.38c-.12.02-.27-.19-.41-.3-1.2-.94-2.54-1.53-4.06-1.68-2.09-.21-3.98.31-5.65 1.59-1.68 1.29-2.67 3-3.02 5.08-.07.39-.08.79-.1 1.2z"></path><path d="M9.651 13.331c-.117 0-.204-.07-.273-.14l-1.123-1.046c-.75-.699-1.501-1.399-2.261-2.099-.04-.036-.15-.136-.146-.282.003-.129.09-.215.155-.269.039-.034.079-.084.118-.133.103-.126.219-.269.394-.281h.001c.198 0 .332.144.45.271.038.042.076.083.115.116.87.808 1.693 1.572 2.507 2.336l6.959-8.244c.08-.097.193-.21.351-.21.149 0 .256.102.323.178.041.046.095.087.146.127l.258.221-.028.239a1.813 1.813 0 0 1-.116.137c-1.55 1.844-3.121 3.692-4.692 5.541l-.235.276c-.881 1.03-1.75 2.06-2.62 3.099-.041.049-.136.163-.283.163z"></path><path d="M17.44 3.99c-.04.05-.07.09-.1.12C15.7 6.06 14.05 8 12.4 9.94c-.88 1.03-1.75 2.06-2.62 3.1-.1.12-.15.12-.26.01C8.39 12 7.27 10.95 6.13 9.9c-.11-.1-.11-.16 0-.25.14-.12.26-.36.4-.37.14 0 .28.22.42.34.83.77 1.67 1.55 2.5 2.33.11.11.17.12.28-.01 2.32-2.75 4.65-5.5 6.97-8.25.14-.17.23-.19.37-.03.08.09.19.16.28.24l.09.09z"></path>
    </symbol>
    <symbol id="symbol-special_closed" viewBox="0 0 17.33 17.33">
        <path d="M8.66,17.33C3.89,17.33-0.01,13.42,0,8.66C0.01,3.89,3.91-0.01,8.67,0c4.77,0.01,8.67,3.91,8.66,8.67
        C17.33,13.44,13.42,17.34,8.66,17.33z M0.76,8.66c-0.01,4.37,3.52,7.9,7.9,7.91c4.36,0.01,7.9-3.51,7.92-7.89
        c0.02-4.37-3.53-7.92-7.91-7.92C4.29,0.76,0.76,4.29,0.76,8.66z" />
        <path d="M8.66,12.81c-0.85,0-1.69,0-2.54,0c-0.7,0-1.18-0.4-1.2-1.08c-0.05-1.29-0.05-2.58,0-3.87
        c0.02-0.66,0.5-1.06,1.17-1.07c0.32,0,0.32,0,0.32-0.32c0-0.3,0-0.6,0-0.9C6.45,4.35,7.45,3.39,8.68,3.4
        c1.22,0.01,2.21,0.96,2.24,2.17c0.01,0.35,0.01,0.69,0,1.04c0,0.14,0.03,0.19,0.18,0.18c0.16-0.01,0.32-0.02,0.47,0.03
        c0.55,0.16,0.86,0.56,0.86,1.16c0.01,1.21,0.01,2.43,0,3.64c-0.01,0.74-0.49,1.19-1.24,1.19C10.35,12.82,9.5,12.81,8.66,12.81z
         M8.66,12.05c0.85,0,1.71,0,2.56,0c0.34,0,0.45-0.11,0.46-0.44c0-1.2,0-2.4,0-3.6c0-0.34-0.12-0.46-0.47-0.46
        c-1.69,0-3.39,0-5.08,0C5.78,7.54,5.66,7.66,5.66,8c0,1.19,0,2.39,0,3.58c0,0.36,0.11,0.47,0.48,0.47
        C6.98,12.05,7.82,12.05,8.66,12.05z M8.67,6.78c0.45,0,0.9,0,1.35,0c0.09,0,0.16,0,0.15-0.13c-0.01-0.39,0-0.78-0.02-1.17
        c-0.02-0.32-0.14-0.6-0.36-0.84C9.4,4.21,8.89,4.07,8.33,4.19c-0.59,0.13-0.98,0.5-1.12,1.1c-0.1,0.44-0.03,0.89-0.05,1.33
        C7.15,6.77,7.21,6.79,7.34,6.79C7.78,6.78,8.22,6.78,8.67,6.78z" />
        <path d="M7.92,9.4c0-0.33,0.24-0.63,0.58-0.72C8.8,8.6,9.16,8.77,9.33,9.06C9.48,9.35,9.44,9.74,9.2,9.94
        c-0.13,0.11-0.17,0.22-0.15,0.37c0.01,0.08,0,0.17,0,0.25c-0.01,0.23-0.15,0.36-0.37,0.36c-0.22,0-0.36-0.13-0.37-0.36
        c0-0.06-0.01-0.11,0-0.17c0.02-0.19,0-0.35-0.18-0.49C7.96,9.79,7.92,9.6,7.92,9.4z" />
    </symbol>
    <symbol id="symbol-star" viewBox="0 0 25 25">
        <path d="M19.11 21.32C18.24 20.67 17.41 20.05 16.58 19.43C15.29 18.46 14 17.5 12.72 16.52C12.55 16.39 12.45 16.4 12.28 16.52C10.25 18.06 8.21 19.58 6.17 21.11C6.09 21.17 6.01 21.23 5.89 21.31C5.89 21.18 5.89 21.09 5.89 21C5.89 15.57 5.89 10.14 5.88 4.71C5.88 4.45 5.95 4.41 6.19 4.41C10.41 4.42 14.64 4.42 18.86 4.41C19.02 4.41 19.12 4.4 19.12 4.63C19.11 10.14 19.11 15.64 19.11 21.15C19.12 21.2 19.12 21.23 19.11 21.32ZM17.65 18.38C17.65 18.24 17.65 18.17 17.65 18.09C17.65 14.11 17.65 10.13 17.66 6.15C17.66 5.93 17.61 5.88 17.39 5.88C14.14 5.89 10.89 5.89 7.63 5.88C7.41 5.88 7.34 5.92 7.34 6.16C7.35 10.15 7.35 14.14 7.35 18.13C7.35 18.2 7.35 18.27 7.35 18.38C7.43 18.32 7.48001 18.28 7.53 18.25C9.13 17.05 10.73 15.85 12.33 14.64C12.45 14.55 12.53 14.54 12.66 14.64C13.42 15.22 14.18 15.78 14.95 16.36C15.84 17.01 16.72 17.68 17.65 18.38Z" />
    </symbol>
    <symbol id="symbol-star_fill" viewBox="0 0 25 25">
        <path d="M19.1201 18.38C18.1901 17.68 17.3001 17.01 16.4201 16.35C15.6601 15.78 14.8901 15.21 14.1301 14.63C14.0001 14.53 13.9201 14.54 13.8001 14.63C12.2001 15.84 10.6001 17.04 9.00006 18.24C8.95006 18.28 8.90006 18.31 8.82006 18.37C8.82006 18.26 8.82006 18.19 8.82006 18.12C8.82006 14.13 8.82006 10.14 8.81006 6.15C8.81006 5.91 8.88006 5.87 9.10006 5.87C12.3501 5.88 15.6001 5.88 18.8601 5.87C19.0801 5.87 19.1301 5.92 19.1301 6.14C19.1201 10.12 19.1201 14.1 19.1201 18.08C19.1201 18.17 19.1201 18.25 19.1201 18.38Z" />
    </symbol>
    <symbol id="symbol-user" viewBox="0 0 23 24">
        <path d="M11.491 19.624c-2.622 0-5.253 0-7.875.009-.203 0-.249-.046-.249-.249.019-.625.01-1.242 0-1.867-.009-.7.249-1.288.746-1.776.69-.699 1.545-1.122 2.447-1.463 1.757-.662 3.57-1.048 5.446-.947 2.125.12 4.15.635 6.008 1.72.359.212.671.479.957.791.423.47.644 1.012.644 1.647-.01.635-.01 1.279 0 1.914 0 .184-.046.22-.221.22-2.631-.009-5.263 0-7.903 0zm0-1.804h6.219c.074 0 .092-.027.101-.092.019-.294-.018-.552-.257-.754a4.522 4.522 0 0 0-.534-.405c-1.481-.883-3.11-1.242-4.793-1.407-1.37-.138-2.705.1-4.011.478-.902.258-1.785.561-2.54 1.14-.266.203-.524.406-.505.81.009.221.064.249.266.249 2.015-.028 4.04-.019 6.054-.019zM11.5 3.386A3.606 3.606 0 0 1 15.097 7a3.6 3.6 0 0 1-3.615 3.597 3.6 3.6 0 0 1-3.588-3.597c0-1.987 1.619-3.615 3.606-3.615zm0 5.41c.994 0 1.822-.829 1.803-1.813-.009-.994-.8-1.776-1.803-1.794a1.816 1.816 0 0 0-1.822 1.803c.01.984.828 1.803 1.822 1.803z"></path>
    </symbol>
    <symbol id="symbol-delet" viewBox="0 0 13.59 17.35">
        <path d="M0.76,9.5c0-2.17,0-4.33,0-6.5c0-0.35,0-0.36-0.35-0.37c-0.23-0.01-0.36-0.12-0.4-0.33
        c-0.03-0.18,0.07-0.31,0.23-0.38c0.1-0.04,0.22-0.04,0.33-0.04c1.12,0,2.24-0.01,3.36,0c0.2,0,0.26-0.06,0.24-0.25
        c-0.01-0.2-0.01-0.41,0.01-0.62c0.05-0.56,0.51-1.01,1.07-1.02C6.28,0,7.32,0,8.36,0.01c0.56,0.01,1.01,0.45,1.06,1.02
        C9.44,1.25,9.45,1.48,9.44,1.7c-0.01,0.16,0.05,0.2,0.2,0.2c1.13-0.01,2.25,0,3.38,0c0.09,0,0.19,0,0.28,0.02
        c0.19,0.04,0.29,0.17,0.29,0.36c0,0.19-0.11,0.32-0.31,0.36c-0.02,0-0.03,0-0.05,0c-0.39,0.04-0.39,0.04-0.39,0.45
        c0,4.33,0,8.67,0,13c0,0.64-0.29,1.06-0.85,1.23c-0.13,0.04-0.27,0.04-0.4,0.04c-3.2,0-6.4,0-9.59,0c-0.77,0-1.24-0.47-1.24-1.25
        C0.76,13.9,0.76,11.7,0.76,9.5z M12.08,9.5c0-2.21,0-4.41,0-6.62c0-0.19-0.04-0.25-0.24-0.25c-3.36,0.01-6.73,0.01-10.09,0
        c-0.2,0-0.24,0.05-0.24,0.25c0.01,4.39,0,8.78,0,13.16c0,0.44,0.11,0.55,0.55,0.55c3.16,0,6.32,0,9.47,0c0.44,0,0.55-0.11,0.55-0.55
        C12.08,13.86,12.08,11.68,12.08,9.5z M6.78,1.89c0.41,0,0.82,0,1.24,0c0.75,0,0.75,0,0.66-0.76C8.65,0.89,8.53,0.77,8.29,0.77
        c-1,0-2,0-2.99,0c-0.24,0-0.36,0.13-0.38,0.37c-0.01,0.2,0,0.4-0.01,0.59C4.91,1.87,4.96,1.9,5.09,1.89
        C5.65,1.89,6.21,1.89,6.78,1.89z" />
        <path d="M9.81,7.23c0,0.1-0.1,0.2-0.2,0.3C8.9,8.24,8.19,8.96,7.47,9.66c-0.12,0.12-0.11,0.18,0,0.29
        c0.71,0.7,1.41,1.4,2.11,2.1c0.07,0.07,0.13,0.14,0.18,0.22c0.09,0.15,0.07,0.31-0.04,0.44c-0.13,0.13-0.29,0.16-0.45,0.06
        c-0.08-0.05-0.15-0.12-0.22-0.18c-0.7-0.7-1.41-1.4-2.1-2.11c-0.11-0.12-0.17-0.13-0.29,0c-0.69,0.71-1.4,1.41-2.1,2.11
        c-0.06,0.06-0.12,0.13-0.2,0.17c-0.17,0.11-0.34,0.09-0.48-0.05c-0.13-0.13-0.14-0.3-0.04-0.46c0.05-0.07,0.11-0.14,0.17-0.2
        c0.66-0.66,1.31-1.31,1.97-1.97c0.28-0.28,0.28-0.28,0.01-0.55C5.3,8.85,4.62,8.17,3.94,7.48C3.82,7.36,3.75,7.23,3.8,7.06
        C3.84,6.9,3.96,6.82,4.11,6.8c0.18-0.03,0.3,0.08,0.41,0.19c0.7,0.7,1.41,1.4,2.1,2.11c0.15,0.15,0.22,0.15,0.36,0
        c0.69-0.7,1.39-1.39,2.08-2.09c0.08-0.08,0.15-0.16,0.26-0.2C9.57,6.73,9.82,6.91,9.81,7.23z" />
    </symbol>
    <symbol id="symbol-upload" viewBox="0 0 15.81 14.76">
        <path d="M3.12,14.76c-1.9,0.01-3.51-2.01-3.03-4.14C0.23,10,0.52,9.46,0.97,9c2.46-2.46,4.92-4.92,7.37-7.38
        c0.25-0.25,0.52-0.25,0.67-0.01C9.1,1.76,9.1,1.9,8.99,2.04c-0.04,0.05-0.1,0.1-0.15,0.15C6.43,4.6,4.02,7.01,1.61,9.42
        c-0.57,0.57-0.9,1.25-0.86,2.07c0.1,1.95,2.1,3.06,3.77,2.26c0.3-0.14,0.55-0.35,0.78-0.58c3.05-3.05,6.1-6.1,9.15-9.14
        c1.02-1.02,0.67-2.48-0.38-3.04c-0.78-0.41-1.62-0.27-2.27,0.38C9.86,3.3,7.92,5.24,5.98,7.18C5.44,7.73,4.89,8.27,4.35,8.82
        C4.02,9.15,3.9,9.54,4.04,10c0.23,0.74,1.15,1.02,1.76,0.53c0.08-0.06,0.16-0.14,0.23-0.21c1.82-1.82,3.64-3.63,5.45-5.45
        c0.06-0.06,0.12-0.12,0.19-0.17c0.15-0.1,0.31-0.07,0.44,0.04c0.13,0.12,0.17,0.27,0.09,0.43c-0.03,0.07-0.09,0.12-0.14,0.18
        c-1.86,1.86-3.72,3.73-5.58,5.59C5.7,11.72,4.57,11.74,3.79,11c-0.65-0.61-0.74-1.71-0.2-2.44c0.1-0.13,0.2-0.25,0.31-0.36
        c2.44-2.45,4.89-4.89,7.33-7.34c0.46-0.46,1-0.75,1.66-0.83c1.39-0.18,2.74,0.86,2.9,2.26C15.9,3.17,15.63,3.92,15,4.55
        c-3.08,3.08-6.16,6.15-9.24,9.23C5.1,14.43,4.3,14.75,3.12,14.76z" />
    </symbol>
    <symbol id="symbol-lock" viewBox="0 0 35.8 44.31">
        <path d="M17.9,44.31c-4.91,0-9.82,0-14.74,0C1.18,44.31,0,43.13,0,41.13c0-7.31,0-14.62,0-21.92
        c0-1.59,0.75-2.64,2.15-3.06c0.41-0.12,0.83-0.08,1.24-0.09c0.94-0.01,1.88-0.02,2.81,0.01c0.33,0.01,0.4-0.09,0.4-0.41
        c0-1.65-0.08-3.3,0.05-4.94C7,6.1,9.28,2.73,13.56,0.96c4.44-1.84,8.57-1.02,12.11,2.2c2.45,2.23,3.53,5.13,3.53,8.43
        c0,1.34,0.01,2.67-0.01,4.01c-0.01,0.35,0.07,0.48,0.45,0.47c1.06-0.03,2.12-0.02,3.18-0.01c1.74,0.02,2.97,1.19,2.97,2.93
        c0.02,7.46,0.02,14.93,0,22.39c0,1.72-1.26,2.92-3,2.92C27.83,44.31,22.87,44.31,17.9,44.31z M17.9,17.95c-4.9,0-9.79,0-14.69,0
        c-1.03,0-1.34,0.3-1.34,1.32c0,7.29,0,14.58,0,21.87c0,0.95,0.33,1.29,1.28,1.29c9.83,0,19.65,0,29.48,0c0.95,0,1.29-0.33,1.29-1.28
        c0-7.31,0-14.62,0-21.93c0-0.95-0.33-1.27-1.28-1.27C27.73,17.95,22.81,17.95,17.9,17.95z M17.86,16.06c3,0,6-0.01,9.01,0.01
        c0.34,0,0.48-0.05,0.47-0.44c-0.03-1.37,0-2.74-0.01-4.11c-0.02-2.39-0.73-4.55-2.32-6.35C22.87,2.75,20.16,1.75,16.95,2
        c-4.47,0.35-8.26,4.23-8.43,8.71c-0.06,1.63-0.02,3.26-0.06,4.89c-0.01,0.41,0.12,0.47,0.5,0.47
        C11.92,16.05,14.89,16.06,17.86,16.06z" />
        <path d="M16.02,31.81c0-0.24-0.01-0.49,0-0.73c0.03-0.44-0.07-0.79-0.39-1.16c-0.91-1.07-0.68-2.85,0.42-3.79
        c1.07-0.91,2.84-0.85,3.8,0.12c1.07,1.08,1.14,2.79,0.14,3.85c-0.19,0.2-0.24,0.39-0.24,0.64c0.01,0.73,0.01,1.46,0,2.18
        c-0.01,1.13-0.79,1.94-1.86,1.94c-1.1,0.01-1.88-0.8-1.89-1.97C16.02,32.54,16.02,32.18,16.02,31.81z" />
    </symbol>
</svg>