<!-- Generator: Adobe Illustrator 23.0.2, SVG Export Plug-In  -->
<svg version="1.1" xmlns="http://www.w3.org/2000/svg" xmlns:xlink="http://www.w3.org/1999/xlink" x="0px" y="0px" width="7.89px"
     height="4.11px" viewBox="0 0 7.89 4.11" style="enable-background:new 0 0 7.89 4.11;" xml:space="preserve">
<path d="M0,0c2.63,0,5.25,0,7.89,0C7.86,0.03,7.84,0.05,7.83,0.07C6.55,1.4,5.28,2.74,4,4.07
    C3.96,4.12,3.94,4.14,3.89,4.08C2.6,2.73,1.32,1.39,0.03,0.04C0.02,0.03,0.02,0.02,0,0z"/>
</svg>
