<!-- Generator: Adobe Illustrator 23.0.2, SVG Export Plug-In  -->
<svg version="1.1" xmlns="http://www.w3.org/2000/svg" xmlns:xlink="http://www.w3.org/1999/xlink" x="0px" y="0px" width="7.89px"
     height="4.11px" viewBox="0 0 7.89 4.11" style="enable-background:new 0 0 7.89 4.11;" xml:space="preserve">
<path  d="M0.88,0.37C0.9,0.4,0.9,0.4,0.91,0.41C1.9,1.45,2.9,2.49,3.89,3.53C3.95,3.6,3.97,3.55,4.01,3.51
    C4.98,2.5,5.96,1.48,6.93,0.46c0.02-0.02,0.06-0.04,0.06-0.08C4.96,0.37,2.93,0.37,0.88,0.37z"/>
</svg>
