<!-- Generator: Adobe Illustrator 23.0.2, SVG Export Plug-In  -->
<svg version="1.1" xmlns="http://www.w3.org/2000/svg" xmlns:xlink="http://www.w3.org/1999/xlink" x="0px" y="0px" width="18.84px"
     height="17.92px" viewBox="0 0 18.84 17.92" style="enable-background:new 0 0 18.84 17.92;" xml:space="preserve">
<path d="M3.86,17.92c-0.28,0-0.44-0.21-0.37-0.48c0.18-0.72,0.37-1.43,0.56-2.15c0.34-1.28,0.68-2.55,1.02-3.82
    c0.04-0.13,0-0.21-0.1-0.29C3.43,9.91,1.9,8.66,0.36,7.4C0.3,7.35,0.25,7.3,0.19,7.25C0.04,7.14-0.04,7.01,0.02,6.82
    c0.07-0.19,0.21-0.27,0.42-0.28C0.96,6.52,1.48,6.49,2,6.46c1.52-0.07,3.04-0.15,4.56-0.22c0.15-0.01,0.21-0.07,0.26-0.2
    C7.54,4.16,8.27,2.27,9,0.39c0.01-0.03,0.02-0.06,0.04-0.1C9.11,0.13,9.22,0,9.41,0c0.2,0,0.32,0.12,0.39,0.29
    c0.25,0.63,0.49,1.27,0.74,1.9c0.5,1.29,1,2.58,1.49,3.87c0.05,0.13,0.11,0.17,0.25,0.18c2.03,0.1,4.06,0.2,6.09,0.3
    c0.21,0.01,0.37,0.08,0.44,0.28c0.07,0.21-0.05,0.34-0.2,0.46c-1.55,1.26-3.09,2.53-4.64,3.79c-0.19,0.16-0.25,0.29-0.18,0.53
    c0.52,1.9,1.02,3.81,1.53,5.71c0,0.01,0.01,0.03,0.01,0.04c0.05,0.18,0.06,0.36-0.11,0.49c-0.18,0.13-0.35,0.08-0.52-0.03
    c-0.43-0.28-0.86-0.56-1.29-0.83c-1.28-0.82-2.56-1.64-3.83-2.46c-0.12-0.08-0.19-0.08-0.31,0c-1.7,1.1-3.41,2.19-5.11,3.28
    C4.06,17.86,3.97,17.93,3.86,17.92z"/>
</svg>
